module dg-datamaster-service

go 1.20

require (
	github.com/golang-jwt/jwt/v5 v5.2.1 // indirect
	github.com/jmoiron/sqlx v1.4.0 // indirect
	github.com/joho/godotenv v1.5.1 // indirect
	github.com/julienschmidt/httprouter v1.3.0 // indirect
	github.com/lib/pq v1.10.9 // indirect
	golang.org/x/crypto v0.24.0 // indirect
)
